param: cs: 7, bs: 9, ds: 5, dc: 5, nh: 400, de: 50, ws: 3
vocsize: 23085, nclasses: 426, total 2char suffix: 619, nsentences: 37789
training started...

time 0221: 2351.000000 secs
epoch 0, err 0221: 0.383533 
00 accuracy: 0.908172, err: 0.338416 
23 accuracy: 1.298780, err: 0.328452 


time 0221: 2286.000000 secs
epoch 1, err 0221: 0.251908 
00 accuracy: 0.915900, err: 0.329609 
23 accuracy: 1.314199, err: 0.324429 


time 0221: 2279.000000 secs
epoch 2, err 0221: 0.214045 
00 accuracy: 0.916802, err: 0.331088 
23 accuracy: 1.314180, err: 0.323515 


time 0221: 2278.000000 secs
epoch 3, err 0221: 0.189706 
00 accuracy: 0.915504, err: 0.345244 
23 accuracy: 1.301105, err: 0.333437 


time 0221: 2276.000000 secs
epoch 4, err 0221: 0.172684 
00 accuracy: 0.914689, err: 0.350833 
23 accuracy: 1.294117, err: 0.349988 


time 0221: 2275.000000 secs
epoch 5, err 0221: 0.160462 
00 accuracy: 0.911981, err: 0.370988 
23 accuracy: 1.275248, err: 0.364105 


time 0221: 2278.000000 secs
epoch 6, err 0221: 0.152765 
00 accuracy: 0.912972, err: 0.387084 
23 accuracy: 1.263414, err: 0.377782 


time 0221: 2272.000000 secs
epoch 7, err 0221: 0.145952 
00 accuracy: 0.913038, err: 0.380326 
23 accuracy: 1.267940, err: 0.375984 


time 0221: 2273.000000 secs
epoch 8, err 0221: 0.140826 
00 accuracy: 0.911937, err: 0.392642 
23 accuracy: 1.257171, err: 0.386281 


time 0221: 2280.000000 secs
epoch 9, err 0221: 0.137759 
00 accuracy: 0.910968, err: 0.414527 
23 accuracy: 1.239332, err: 0.398997 


time 0221: 2279.000000 secs
epoch 10, err 0221: 0.135185 
00 accuracy: 0.909867, err: 0.418449 
23 accuracy: 1.233809, err: 0.419649 


time 0221: 2277.000000 secs
epoch 11, err 0221: 0.135122 
00 accuracy: 0.911188, err: 0.419434 
23 accuracy: 1.235446, err: 0.407010 


time 0221: 2278.000000 secs
epoch 12, err 0221: 0.134779 
00 accuracy: 0.909956, err: 0.434954 
23 accuracy: 1.222389, err: 0.427805 


time 0221: 2282.000000 secs
epoch 13, err 0221: 0.132129 
00 accuracy: 0.908723, err: 0.447487 
23 accuracy: 1.210620, err: 0.437235 


time 0221: 2275.000000 secs
epoch 14, err 0221: 0.132213 
00 accuracy: 0.910000, err: 0.442586 
23 accuracy: 1.215555, err: 0.437499 


time 0221: 2295.000000 secs
epoch 15, err 0221: 0.130921 
00 accuracy: 0.911056, err: 0.453554 
23 accuracy: 1.209783, err: 0.443126 

